{
    "env": "production",
    "service": {
        "name": "2e Systems::Assignments 1 and 2::Production",
        "internalIP": "127.0.0.1",
        "externalIP": "127.0.0.1",
        "port": "2000"
    },
    "db": {
        "host": "127.0.0.1",
        "database": "2e_systems_prod",
        "migrations": {
            "directory": "./migrations"
        },
        "seeds": {
            "directory": "./seeds/production"
        }
    }
}